<svg xmlns="http://www.w3.org/2000/svg" viewBox="0 0 3181 3833" shape-rendering="geometricPrecision" text-rendering="geometricPrecision" image-rendering="optimizeQuality" fill-rule="evenodd" clip-rule="evenodd">
  <path d="M42 10h3139v2516c-5 147-50 299-128 444-80 149-194 291-334 415-147 130-323 240-519 317-181 71-379 113-586 116h-22c-206 0-402-37-582-102-193-70-367-171-514-294-148-124-270-269-355-424-83-151-131-312-138-473H2V8h41zm1105 3355h45v-129l5-22-16 19-29 20-18-25 75-60h24v197h44v36h-130v-36zm237-20c0-8 1-14 3-20s5-11 8-16c4-5 8-9 13-13s10-8 16-11c-11-7-19-15-25-23-6-9-9-20-9-33 0-8 2-16 5-24 3-7 8-14 14-19s13-10 22-13c8-3 18-5 29-5 10 0 19 1 27 4s15 6 21 11 10 11 13 17c3 7 5 14 5 23 0 13-3 24-9 33s-14 17-25 25c13 8 23 16 30 25s10 21 10 35c0 10-2 19-5 27-4 8-9 15-15 20-7 6-14 10-24 13-9 3-19 5-30 5s-21-1-30-4-16-7-23-12c-6-5-11-12-14-19s-5-16-5-25zm105-4c0-5-1-10-4-14-2-4-6-8-9-11-4-3-8-6-13-9s-9-6-14-8c-10 6-17 12-21 19s-6 14-6 20c0 9 3 16 9 22s14 9 25 9c10 0 18-2 24-7s9-12 9-22zm-59-112c0 5 1 10 3 14s5 7 8 10 7 6 11 8c4 3 9 5 13 7 13-11 20-23 20-37 0-9-3-16-8-21s-12-7-19-7c-10 0-17 2-21 8-4 5-7 11-7 18zm197 58c0-40 7-70 21-89 14-20 33-29 59-29 27 0 48 10 60 29 13 19 19 49 19 90 0 40-7 70-21 90s-34 29-59 29c-27 0-47-10-60-31s-19-50-19-88zm42 0c0 27 3 47 9 62 6 14 15 22 29 22 13 0 22-7 28-20s9-34 9-63c0-26-3-47-8-61-6-14-15-22-29-22-13 0-22 7-28 20-6 14-9 34-9 62zm376 51h-36v64h-40v-64h-99v-24l104-142h35v133h36v34zm-75-84l3-27h-1l-11 24-34 44-16 12 21-3h39v-50zM1111 949c-96-54-138 25-232 44-105 22-133-60-178-133 74 16 78 50 175-16 71-49 160-17 213 43l-58-157c174-1 370-24 541 0l22 4c184 36 322 193 322 392 0 146-83 307-205 393v18c163-37 349-174 366-251-24-9-81-42-80-46-64-46-91-137-76-206s47-103 93-130c32-16 60-26 95-29l858-121c4 29 7 59 8 88 25 525-381 971-905 995-179 8-411-91-492-260-4 1-9 1-13 2-31 3-60 9-87 16-27 114 206 203 477 246l-43 63c51-16 106-25 162-25 297 0 539 241 539 539 0 297-241 539-539 539-297 0-539-241-539-539 0-31 3-61 7-90l18 3 326 22c-16 26-26 58-26 91 0 96 78 175 175 175 96 0 175-78 175-175 0-95-76-172-170-175l-1-2-21 3c-2 0-4 0-6 1l-281 33c-123 20-229 28-320 25l-389 530-49-129c-275-23-180 104-118 156 6 5 6 26 0 31-101-8-189-89-189-194s88-195 196-195c72 0 135 39 169 97l176-557h-28l-107 153c-63-66-112-145-142-233l-298-369c-13 29-32 54-56 73l-60-158c-132-7-213 25-145 126h29l-4-50h83l-13 173v4h-57v-12l-4-56c-75-27-147-86-147-181 0-73 49-147 120-179l-38-508-92-117h156c-6-65 14-135 52-192-35 6-67 24-98 76-20-111 73-255 200-233 128 22 116-16 183-66-5 42-6 83-15 119 132 14 126-34 211-97-15 131-1 263-162 301-146 34-256-51-356 92h209l-92 117-37 496c32 8 60 23 84 44l238 143 52 193h24c25-324 291-580 619-588l-13-32-330 2-62-163zm-15-52c10 13 19 28 25 43 140 25 401 187 314-43h-339zm229-469h85v20h27v66c-17 7-29 24-29 44 0 21 14 39 32 45h11c26 0 47-21 47-47v-3-4-8c-2-7-6-14-12-19l-1-1-1-1-1-1-1-1-1-1c-1 0-1-1-2-1h-2c-1 0-1-1-2-1s-1-1-2-1h-2v-12c0-39 34-90 73-91l72-2-103 270-295 1-103-270 69 1c39 1 73 52 73 91v12c-10 4-17 12-22 21v6c-1 2-1 4-2 6 0 2-1 3-1 5v4c0 26 21 47 47 47h9c20-6 35-24 35-46 0-20-12-37-29-44v-66h27v-20zm1185 1630c228-92 439-247 487-631-45 190-144 295-267 353-132 62-293 71-448 73 104 45 175 110 227 206zM3097 93H82v2397c0 155 43 311 122 459 80 151 197 292 342 413 140 117 306 213 489 279 172 62 359 97 555 97h22c197-3 385-43 557-111 186-73 354-178 494-302 135-120 245-257 320-399 74-140 114-285 114-425V93z" fill="#fff" fill-rule="nonzero"/>
</svg>
